id,name,model_id:id,group_id:id,perm_read,perm_write,perm_create,perm_unlink
access_preorder_config_user,preorder.config user,model_preorder_config,,1,0,0,0
access_preorder_discount_rule_user,preorder.discount.rule user,model_preorder_discount_rule,,1,0,0,0
access_preorder_user_input_user,preorder.user.input purchase user,model_preorder_user_input,,1,1,1,0
access_preorder_user_input_product_line_user,preorder.user.input.product.line purchase user,model_preorder_user_input_product_line,,1,1,1,0
access_preorder_user_input_puser,preorder.user.input purchase user,model_preorder_user_input,purchase.group_purchase_user,1,1,1,0
access_preorder_user_input_product_line_puser,preorder.user.input.product.line purchase user,model_preorder_user_input_product_line,purchase.group_purchase_user,1,1,1,0
access_preorder_config_manager,preorder.config manager,model_preorder_config,purchase.group_purchase_manager,1,1,1,1
access_preorder_discount_rule_manager,preorder.discount.rule manager,model_preorder_discount_rule,purchase.group_purchase_manager,1,1,1,1
access_preorder_user_input_manager,preorder.user.input manager,model_preorder_user_input,purchase.group_purchase_manager,1,1,1,1
access_preorder_user_input_product_line_manager,preorder.user.input.product.line manager,model_preorder_user_input_product_line,purchase.group_purchase_manager,1,1,1,1
