id,name,model_id:id,group_id:id,perm_read,perm_write,perm_create,perm_unlink

access_res_partner_portal,res_partner group_portal","model_res_partner","group_portal",1,0,0,0
access_res_user,res.partner user,base.model_res_partner,base.group_regenboog_user,1,1,1,0
access_contacts,calendar access,calendar.model_calendar_contacts,base.group_regenboog_user,1,1,1,1
access_attendee,calendar attendee access,calendar.model_calendar_attendee,base.group_regenboog_user,1,1,1,0
access_payment_term_user,account.payment.term user,account.model_account_payment_term,base.group_regenboog_user,1,0,0,0
access_res_groups_user,res.groups user,base.model_res_groups,base.group_regenboog_user,1,0,0,0
access_account_fiscal_position_label_user,account.fiscal.position user,account.model_account_fiscal_position,base.group_regenboog_user,1,0,0,0
